50,Aston University,http://www.aston.ac.uk/,Computer Science,B,B,B,Maths,123,Economics,B,B,B,none,231
39,Birkbeck College University of London,http://www.bbk.ac.uk/,Computer Science,B,B,C,none,202,Economics,B,B,C,none,145
42,Brunel University Uxbridge,http://www.brunel.ac.uk/,Computer Science,B,B,B,none,232,Economics,B,B,B,none,242
41,City University,http://www.city.ac.uk/,Computer Science,A,B,B,Maths/CS,215,Economics,B,B,B,none,194
46,Goldsmiths College,http://www.gold.ac.uk/,Computer Science,B,B,B,Maths/ComputerScience,156,Economics,B,B,B,none,176
3,Imperial College London,http://www.ic.ac.uk/,Computer Science,A*,A*,A,A* in Maths,210
7,King's College London,http://www.kcl.ac.uk/,Computer Science,A,A,A,Maths/FurtherMaths/ComputerScience/Computing,244,Economics,A*,A,A,A in Maths,231
8,London School of Economics and Political Science University of London",http://www.lse.ac.uk/,Economics,A*,A,A,A* in Maths,240
30,Loughborough University,http://www.lboro.ac.uk/,Computer Science,A,A,B,Maths,211,Economics,A,A,B,none,442
44,Oxford Brookes University,http://www.brookes.ac.uk/,Computer Science,B,B,C,none,180,Economics,B,C,C,none,130
19,Queen Mary and Westfield College,http://www.qmw.ac.uk/,Computer Science,A,A,B,Maths/ComputerScience,192,Economics,A,A,A,A in Maths,184
36,Royal Holloway and Bedford New College,http://www.rhbnc.ac.uk/,Computer Science,A,A,B,ComputerScience/Maths/Physics,212,Economics,A,A,B,none,202
40,School of Oriental and African Studies,http://www.soas.ac.uk/,Economics,A,A,A,A or B in Maths,170
29,The Queen's University Belfast,http://www.qub.ac.uk/,Computer Science,B,B,B,Computing/Mathematics A.B.B. Chemistry/Digital Technology/ICT/Physics/Technology and Design,172,Economics,A,B,B,none,182
4,University College London,http://www.ucl.ac.uk/,Computer Science,A*,A*,A,A* in Maths,184,Economics, A*,A,A,A* in Maths,387
25,University of Bath,http://www.bath.ac.uk/,Computer Science,A*,A,A,A in Maths,127,Economics,A*,A,A,A in Maths,255
13,University of Birmingham,http://www.bham.ac.uk/,Computer Science,A,A,A,A in Maths,217,Economics,A,A,A,can have B if B is in Maths,229
9,University of Bristol,http://www.bris.ac.uk/,Computer Science,A*,A,A,A* in Maths,189,Economics,A*,A,A,A in Maths,191
2,University of Cambridge,http://www.cam.ac.uk/,Computer Science,A*,A*,A,A* in Maths,119,Economics,A*,A*,A,A* in Maths,165
12,University of Durham,http://www.dur.ac.uk/,Computer Science,A*,A,A,Maths,185,Economics,A*,A,A,Maths,374
38,University of East Anglia,http://www.uea.ac.uk/,Computer Science,B,B,B,A.B.C if Maths/Computing/Chemistry/Physics/Electronics,266,Economics,A,B,B,none,345
45,University of Essex,http://www.essex.ac.uk/,Computer Science,B,B,B,none,222,Economics,B,B,B,none,238
24,University of Exeter,http://www.ex.ac.uk/,Computer Science,A,A,A,B in Maths/FurtherMaths,192,Economics,A*,A,A,B in Maths,208
43,University of Kent at Canterbury,http://www.ukc.ac.uk/,Computer Science,A,B,B,none,100,Economics,A,B,B,none,120
20,University of Lancaster,http://www.lancs.ac.uk/,Computer Science,A,A,B,none,300,Economics,A,A,B,none,340
15,University of Leeds,http://www.leeds.ac.uk/,Computer Science,A,A,A,A in Maths/Computing,402,Economics,A,A,A,none,347
31,University of Leicester,http://www.le.ac.uk/,Computer Science,A,B,B,none,240,Economics,A,B,B,none,235
26,University of Liverpool,http://www.liv.ac.uk/,Computer Science,A,B,B,Maths/FurtherMaths/Physics/ComputerScience/Computing,312,Economics,A,A,B,A in Maths,213
6,University of Manchester,http://www.man.ac.uk/,Computer Science,A*,A,A,A* in Maths,300,Economics,A,A,B,A in Maths,300
18,University of Nottingham,http://www.nottingham.ac.uk/,Computer Science,A,A,A,A.A.B if A in ComputerScience/Computing,205,Economics,A*,A,A,Maths,358
1,University of Oxford,http://www.ox.ac.uk/,Computer Science,A*,A,A,A* in Maths/FurtherMaths/Computing/ComputerScience,115,Economics,A*,A,A,A in Maths,254
