50,Aston University,http://www.aston.ac.uk/,35,Computer Science,B,B,B,Maths,123,36,Economics,B,B,B,none,231
39,Birkbeck College University of London,http://www.bbk.ac.uk/,30,Computer Science,B,B,C,none,202,50,Economics,B,B,C,none,145
42,Brunel University Uxbridge,http://www.brunel.ac.uk/,24,Computer Science,B,B,B,none,232,30,Economics,B,B,B,none,242
41,City University,http://www.city.ac.uk/,36,Computer Science,A,B,B,Maths/CS,215,18,Economics,B,B,B,none,194
46,Goldsmiths College,http://www.gold.ac.uk/,48,Computer Science,B,B,B,Maths/ComputerScience,156,46,Economics,B,B,B,none,176
3,Imperial College London,http://www.ic.ac.uk/,3,Computer Science,A*,A*,A,A* in Maths,210
7,King's College London,http://www.kcl.ac.uk/,6,Computer Science,A,A,A,Maths/FurtherMaths/ComputerScience/Computing,244,16,Economics,A*,A,A,A in Maths,231
8,London School of Economics and Political Science University of London",http://www.lse.ac.uk/,1,Economics,A*,A,A,A* in Maths,240
30,Loughborough University,http://www.lboro.ac.uk/,27,Computer Science,A,A,B,Maths,211,38,Economics,A,A,B,none,442
44,Oxford Brookes University,http://www.brookes.ac.uk/,32,Computer Science,B,B,C,none,180,31,Economics,B,C,C,none,130
19,Queen Mary and Westfield College,http://www.qmw.ac.uk/,14,Computer Science,A,A,B,Maths/ComputerScience,192,12,Economics,A,A,A,A in Maths,184
36,Royal Holloway and Bedford New College,http://www.rhbnc.ac.uk/,33,Computer Science,A,A,B,ComputerScience/Maths/Physics,212,41,Economics,A,A,B,none,202
40,School of Oriental and African Studies,http://www.soas.ac.uk/,32,Economics,A,A,A,A or B in Maths,170
29,The Queen's University Belfast,http://www.qub.ac.uk/,21,Computer Science,B,B,B,Computing/Mathematics A.B.B. Chemistry/Digital Technology/ICT/Physics/Technology and Design,172,45,Economics,A,B,B,none,182
4,University College London,http://www.ucl.ac.uk/,4,Computer Science,A*,A*,A,A* in Maths,184,4,Economics, A*,A,A,A* in Maths,387
25,University of Bath,http://www.bath.ac.uk/,38,Computer Science,A*,A,A,A in Maths,127,35,Economics,A*,A,A,A in Maths,255
13,University of Birmingham,http://www.bham.ac.uk/,16,Computer Science,A,A,A,A in Maths,217,15,Economics,A,A,A,can have B if B is in Maths,229
9,University of Bristol,http://www.bris.ac.uk/,11,Computer Science,A*,A,A,A* in Maths,189,10,Economics,A*,A,A,A in Maths,191
2,University of Cambridge,http://www.cam.ac.uk/,2,Computer Science,A*,A*,A,A* in Maths,119,3,Economics,A*,A*,A,A* in Maths,165
12,University of Durham,http://www.dur.ac.uk/,26,Computer Science,A*,A,A,Maths,185,24,Economics,A*,A,A,Maths,374
38,University of East Anglia,http://www.uea.ac.uk/,31,Computer Science,B,B,B,A.B.C if Maths/Computing/Chemistry/Physics/Electronics,266,26,Economics,A,B,B,none,345
45,University of Essex,http://www.essex.ac.uk/,28,Computer Science,B,B,B,none,222,17,Economics,B,B,B,none,238
24,University of Exeter,http://www.ex.ac.uk/,41,Computer Science,A,A,A,B in Maths/FurtherMaths,192,27,Economics,A*,A,A,B in Maths,208
43,University of Kent at Canterbury,http://www.ukc.ac.uk/,34,Computer Science,A,B,B,none,100,39,Economics,A,B,B,none,120
20,University of Lancaster,http://www.lancs.ac.uk/,10,Computer Science,A,A,B,none,300,25,Economics,A,A,B,none,340
15,University of Leeds,http://www.leeds.ac.uk/,20,Computer Science,A,A,A,A in Maths/Computing,402,20,Economics,A,A,A,none,347
31,University of Leicester,http://www.le.ac.uk/,40,Computer Science,A,B,B,none,240,42,Economics,A,B,B,none,235
26,University of Liverpool,http://www.liv.ac.uk/,29,Computer Science,A,B,B,Maths/FurtherMaths/Physics/ComputerScience/Computing,312,43,Economics,A,A,B,A in Maths,213
6,University of Manchester,http://www.man.ac.uk/,7,Computer Science,A*,A,A,A* in Maths,300,8,Economics,A,A,B,A in Maths,300
18,University of Nottingham,http://www.nottingham.ac.uk/,19,Computer Science,A,A,A,A.A.B if A in ComputerScience/Computing,205,11,Economics,A*,A,A,Maths,358
1,University of Oxford,http://www.ox.ac.uk/,1,Computer Science,A*,A,A,A* in Maths/FurtherMaths/Computing/ComputerScience,115,2,Economics,A*,A,A,A in Maths,254
