2021-02-05 21:07:38,081 ERROR: Exception on /test [GET] [in /home/stefanos/COMP2011/flask/lib/python3.6/site-packages/flask/app.py:1891]
Traceback (most recent call last):
  File "/home/stefanos/COMP2011/flask/lib/python3.6/site-packages/flask/app.py", line 2446, in wsgi_app
    response = self.full_dispatch_request()
  File "/home/stefanos/COMP2011/flask/lib/python3.6/site-packages/flask/app.py", line 1951, in full_dispatch_request
    rv = self.handle_user_exception(e)
  File "/home/stefanos/COMP2011/flask/lib/python3.6/site-packages/flask/app.py", line 1820, in handle_user_exception
    reraise(exc_type, exc_value, tb)
  File "/home/stefanos/COMP2011/flask/lib/python3.6/site-packages/flask/_compat.py", line 39, in reraise
    raise value
  File "/home/stefanos/COMP2011/flask/lib/python3.6/site-packages/flask/app.py", line 1949, in full_dispatch_request
    rv = self.dispatch_request()
  File "/home/stefanos/COMP2011/flask/lib/python3.6/site-packages/flask/app.py", line 1935, in dispatch_request
    return self.view_functions[rule.endpoint](**req.view_args)
  File "/home/stefanos/Downloads/comp2913-master (2)/merged/CW/app/views.py", line 31, in decorated_view
    if ( (current_user.role != role) and (role != "ANY")):
  File "/home/stefanos/COMP2011/flask/lib/python3.6/site-packages/werkzeug/local.py", line 348, in __getattr__
    return getattr(self._get_current_object(), name)
AttributeError: 'Student' object has no attribute 'role'
2021-02-05 21:07:58,160 INFO: University Service startup [in /home/stefanos/Downloads/comp2913-master (2)/merged/CW/app/__init__.py:218]
2021-02-05 21:07:58,624 ERROR: Exception on /test [GET] [in /home/stefanos/COMP2011/flask/lib/python3.6/site-packages/flask/app.py:1891]
Traceback (most recent call last):
  File "/home/stefanos/COMP2011/flask/lib/python3.6/site-packages/flask/app.py", line 2446, in wsgi_app
    response = self.full_dispatch_request()
  File "/home/stefanos/COMP2011/flask/lib/python3.6/site-packages/flask/app.py", line 1951, in full_dispatch_request
    rv = self.handle_user_exception(e)
  File "/home/stefanos/COMP2011/flask/lib/python3.6/site-packages/flask/app.py", line 1820, in handle_user_exception
    reraise(exc_type, exc_value, tb)
  File "/home/stefanos/COMP2011/flask/lib/python3.6/site-packages/flask/_compat.py", line 39, in reraise
    raise value
  File "/home/stefanos/COMP2011/flask/lib/python3.6/site-packages/flask/app.py", line 1949, in full_dispatch_request
    rv = self.dispatch_request()
  File "/home/stefanos/COMP2011/flask/lib/python3.6/site-packages/flask/app.py", line 1935, in dispatch_request
    return self.view_functions[rule.endpoint](**req.view_args)
TypeError: wrapper() missing 1 required positional argument: 'fn'
2021-02-05 21:08:56,650 INFO: University Service startup [in /home/stefanos/Downloads/comp2913-master (2)/merged/CW/app/__init__.py:218]
2021-02-05 21:15:22,792 ERROR: Exception on /Qlf [GET] [in /home/stefanos/COMP2011/flask/lib/python3.6/site-packages/flask/app.py:1891]
Traceback (most recent call last):
  File "/home/stefanos/COMP2011/flask/lib/python3.6/site-packages/flask/app.py", line 2446, in wsgi_app
    response = self.full_dispatch_request()
  File "/home/stefanos/COMP2011/flask/lib/python3.6/site-packages/flask/app.py", line 1951, in full_dispatch_request
    rv = self.handle_user_exception(e)
  File "/home/stefanos/COMP2011/flask/lib/python3.6/site-packages/flask/app.py", line 1820, in handle_user_exception
    reraise(exc_type, exc_value, tb)
  File "/home/stefanos/COMP2011/flask/lib/python3.6/site-packages/flask/_compat.py", line 39, in reraise
    raise value
  File "/home/stefanos/COMP2011/flask/lib/python3.6/site-packages/flask/app.py", line 1949, in full_dispatch_request
    rv = self.dispatch_request()
  File "/home/stefanos/COMP2011/flask/lib/python3.6/site-packages/flask/app.py", line 1935, in dispatch_request
    return self.view_functions[rule.endpoint](**req.view_args)
  File "/home/stefanos/Downloads/comp2913-master (2)/merged/CW/app/views.py", line 53, in Qlf
    print(std)
NameError: name 'std' is not defined
2021-02-05 21:15:33,791 INFO: University Service startup [in /home/stefanos/Downloads/comp2913-master (2)/merged/CW/app/__init__.py:218]
2021-02-05 21:16:06,339 INFO: University Service startup [in /home/stefanos/Downloads/comp2913-master (2)/merged/CW/app/__init__.py:218]
2021-02-05 21:16:40,345 INFO: University Service startup [in /home/stefanos/Downloads/comp2913-master (2)/merged/CW/app/__init__.py:218]
2021-02-05 21:17:18,391 INFO: University Service startup [in /home/stefanos/Downloads/comp2913-master (2)/merged/CW/app/__init__.py:218]
2021-02-05 21:18:16,864 INFO: University Service startup [in /home/stefanos/Downloads/comp2913-master (2)/merged/CW/app/__init__.py:218]
2021-02-05 21:19:25,067 INFO: University Service startup [in /home/stefanos/Downloads/comp2913-master (2)/merged/CW/app/__init__.py:218]
2021-02-05 21:24:55,254 INFO: University Service startup [in /home/stefanos/Downloads/comp2913-master (2)/merged/CW/app/__init__.py:218]
2021-02-05 21:24:57,739 ERROR: Exception on /Qlf [GET] [in /home/stefanos/COMP2011/flask/lib/python3.6/site-packages/flask/app.py:1891]
Traceback (most recent call last):
  File "/home/stefanos/COMP2011/flask/lib/python3.6/site-packages/flask/app.py", line 2446, in wsgi_app
    response = self.full_dispatch_request()
  File "/home/stefanos/COMP2011/flask/lib/python3.6/site-packages/flask/app.py", line 1951, in full_dispatch_request
    rv = self.handle_user_exception(e)
  File "/home/stefanos/COMP2011/flask/lib/python3.6/site-packages/flask/app.py", line 1820, in handle_user_exception
    reraise(exc_type, exc_value, tb)
  File "/home/stefanos/COMP2011/flask/lib/python3.6/site-packages/flask/_compat.py", line 39, in reraise
    raise value
  File "/home/stefanos/COMP2011/flask/lib/python3.6/site-packages/flask/app.py", line 1949, in full_dispatch_request
    rv = self.dispatch_request()
  File "/home/stefanos/COMP2011/flask/lib/python3.6/site-packages/flask/app.py", line 1935, in dispatch_request
    return self.view_functions[rule.endpoint](**req.view_args)
  File "/home/stefanos/Downloads/comp2913-master (2)/merged/CW/app/views.py", line 54, in Qlf
    form.subjectField.data = current_user.subject1
AttributeError: 'QualificationForm' object has no attribute 'subjectField'
2021-02-05 21:26:23,791 INFO: University Service startup [in /home/stefanos/Downloads/comp2913-master (2)/merged/CW/app/__init__.py:218]
2021-02-05 21:48:39,534 INFO: University Service startup [in /home/stefanos/Downloads/comp2913-master (2)/merged/CW/app/__init__.py:218]
2021-02-05 21:49:04,810 INFO: University Service startup [in /home/stefanos/Downloads/comp2913-master (2)/merged/CW/app/__init__.py:218]
2021-02-05 21:49:37,880 INFO: University Service startup [in /home/stefanos/Downloads/comp2913-master (2)/merged/CW/app/__init__.py:218]
2021-02-05 21:50:58,866 INFO: University Service startup [in /home/stefanos/Downloads/comp2913-master (2)/merged/CW/app/__init__.py:218]
2021-02-05 22:30:01,378 INFO: University Service startup [in /home/stefanos/Downloads/comp2913-master (2)/merged/CW/app/__init__.py:218]
2021-02-05 22:32:00,847 INFO: University Service startup [in /home/stefanos/Downloads/comp2913-master (2)/merged/CW/app/__init__.py:218]
2021-02-05 22:32:25,727 INFO: University Service startup [in /home/stefanos/Downloads/comp2913-master (2)/merged/CW/app/__init__.py:218]
2021-02-05 22:33:26,274 INFO: University Service startup [in /home/stefanos/Downloads/comp2913-master (2)/merged/CW/app/__init__.py:218]
2021-02-05 22:34:07,168 INFO: University Service startup [in /home/stefanos/Downloads/comp2913-master (2)/merged/CW/app/__init__.py:218]
2021-02-05 22:34:30,067 INFO: University Service startup [in /home/stefanos/Downloads/comp2913-master (2)/merged/CW/app/__init__.py:218]
2021-02-05 22:36:32,955 INFO: University Service startup [in /home/stefanos/Downloads/comp2913-master (2)/merged/CW/app/__init__.py:218]
2021-02-05 22:37:29,958 INFO: University Service startup [in /home/stefanos/Downloads/comp2913-master (2)/merged/CW/app/__init__.py:218]
2021-02-05 22:38:21,687 INFO: University Service startup [in /home/stefanos/Downloads/comp2913-master (2)/merged/CW/app/__init__.py:218]
2021-02-05 22:57:52,595 INFO: University Service startup [in /home/stefanos/Downloads/comp2913-master (2)/merged/CW/app/__init__.py:218]
2021-02-05 23:23:28,848 INFO: University Service startup [in /home/stefanos/Downloads/comp2913-master (2)/merged/CW/app/__init__.py:218]
2021-02-05 23:24:48,006 INFO: University Service startup [in /home/stefanos/Downloads/comp2913-master (2)/merged/CW/app/__init__.py:218]
2021-02-05 23:25:30,025 INFO: University Service startup [in /home/stefanos/Downloads/comp2913-master (2)/merged/CW/app/__init__.py:218]
2021-02-05 23:25:39,299 INFO: University Service startup [in /home/stefanos/Downloads/comp2913-master (2)/merged/CW/app/__init__.py:218]
2021-02-05 23:32:34,010 INFO: University Service startup [in /home/stefanos/Downloads/comp2913-master (2)/merged/CW/app/__init__.py:218]
2021-02-05 23:47:42,455 INFO: University Service startup [in /home/stefanos/Downloads/comp2913-master (2)/merged/CW/app/__init__.py:218]
2021-02-05 23:49:41,647 INFO: University Service startup [in /home/stefanos/Downloads/comp2913-master (2)/merged/CW/app/__init__.py:218]
2021-02-05 23:50:57,964 INFO: University Service startup [in /home/stefanos/Downloads/comp2913-master (2)/merged/CW/app/__init__.py:218]
2021-02-05 23:51:50,028 INFO: University Service startup [in /home/stefanos/Downloads/comp2913-master (2)/merged/CW/app/__init__.py:218]
2021-02-05 23:59:39,434 INFO: University Service startup [in /home/stefanos/Downloads/comp2913-master (2)/merged/CW/app/__init__.py:218]
2021-02-05 23:59:56,017 INFO: University Service startup [in /home/stefanos/Downloads/comp2913-master (2)/merged/CW/app/__init__.py:218]
2021-02-06 00:00:11,778 INFO: University Service startup [in /home/stefanos/Downloads/comp2913-master (2)/merged/CW/app/__init__.py:218]
2021-02-06 00:07:18,665 INFO: University Service startup [in /home/stefanos/Downloads/comp2913-master (2)/merged/CW/app/__init__.py:218]
