2021-02-08 04:07:26,014 ERROR: Exception on /apply [POST] [in /home/stefanos/COMP2011/flask/lib/python3.6/site-packages/flask/app.py:1891]
Traceback (most recent call last):
  File "/home/stefanos/COMP2011/flask/lib/python3.6/site-packages/flask/app.py", line 2446, in wsgi_app
    response = self.full_dispatch_request()
  File "/home/stefanos/COMP2011/flask/lib/python3.6/site-packages/flask/app.py", line 1951, in full_dispatch_request
    rv = self.handle_user_exception(e)
  File "/home/stefanos/COMP2011/flask/lib/python3.6/site-packages/flask/app.py", line 1820, in handle_user_exception
    reraise(exc_type, exc_value, tb)
  File "/home/stefanos/COMP2011/flask/lib/python3.6/site-packages/flask/_compat.py", line 39, in reraise
    raise value
  File "/home/stefanos/COMP2011/flask/lib/python3.6/site-packages/flask/app.py", line 1949, in full_dispatch_request
    rv = self.dispatch_request()
  File "/home/stefanos/COMP2011/flask/lib/python3.6/site-packages/flask/app.py", line 1935, in dispatch_request
    return self.view_functions[rule.endpoint](**req.view_args)
  File "/home/stefanos/Downloads/comp2913-master (2)/merged/CW/app/views.py", line 58, in apply
    if form.validate_on_submit():
  File "/home/stefanos/COMP2011/flask/lib/python3.6/site-packages/flask_wtf/form.py", line 101, in validate_on_submit
    return self.is_submitted() and self.validate()
  File "/home/stefanos/COMP2011/flask/lib/python3.6/site-packages/wtforms/form.py", line 310, in validate
    return super(Form, self).validate(extra)
  File "/home/stefanos/COMP2011/flask/lib/python3.6/site-packages/wtforms/form.py", line 152, in validate
    if not field.validate(self, extra):
  File "/home/stefanos/COMP2011/flask/lib/python3.6/site-packages/wtforms/fields/core.py", line 195, in validate
    self.pre_validate(form)
  File "/home/stefanos/COMP2011/flask/lib/python3.6/site-packages/wtforms/fields/core.py", line 471, in pre_validate
    for v, _ in self.choices:
TypeError: 'NoneType' object is not iterable
2021-02-08 04:10:50,371 INFO: University Service startup [in /home/stefanos/Downloads/comp2913-master (2)/merged/CW/app/__init__.py:218]
2021-02-08 04:11:00,709 ERROR: Exception on /MyApplication [GET] [in /home/stefanos/COMP2011/flask/lib/python3.6/site-packages/flask/app.py:1891]
Traceback (most recent call last):
  File "/home/stefanos/COMP2011/flask/lib/python3.6/site-packages/flask/app.py", line 2446, in wsgi_app
    response = self.full_dispatch_request()
  File "/home/stefanos/COMP2011/flask/lib/python3.6/site-packages/flask/app.py", line 1951, in full_dispatch_request
    rv = self.handle_user_exception(e)
  File "/home/stefanos/COMP2011/flask/lib/python3.6/site-packages/flask/app.py", line 1820, in handle_user_exception
    reraise(exc_type, exc_value, tb)
  File "/home/stefanos/COMP2011/flask/lib/python3.6/site-packages/flask/_compat.py", line 39, in reraise
    raise value
  File "/home/stefanos/COMP2011/flask/lib/python3.6/site-packages/flask/app.py", line 1949, in full_dispatch_request
    rv = self.dispatch_request()
  File "/home/stefanos/COMP2011/flask/lib/python3.6/site-packages/flask/app.py", line 1935, in dispatch_request
    return self.view_functions[rule.endpoint](**req.view_args)
  File "/home/stefanos/Downloads/comp2913-master (2)/merged/CW/app/views.py", line 51, in MyApplication
    return render_template('myApp.html', title = 'My Application')
  File "/home/stefanos/COMP2011/flask/lib/python3.6/site-packages/flask/templating.py", line 138, in render_template
    ctx.app.jinja_env.get_or_select_template(template_name_or_list),
  File "/home/stefanos/COMP2011/flask/lib/python3.6/site-packages/jinja2/environment.py", line 869, in get_or_select_template
    return self.get_template(template_name_or_list, parent, globals)
  File "/home/stefanos/COMP2011/flask/lib/python3.6/site-packages/jinja2/environment.py", line 830, in get_template
    return self._load_template(name, self.make_globals(globals))
  File "/home/stefanos/COMP2011/flask/lib/python3.6/site-packages/jinja2/environment.py", line 804, in _load_template
    template = self.loader.load(self, name, globals)
  File "/home/stefanos/COMP2011/flask/lib/python3.6/site-packages/jinja2/loaders.py", line 125, in load
    code = environment.compile(source, name, filename)
  File "/home/stefanos/COMP2011/flask/lib/python3.6/site-packages/jinja2/environment.py", line 591, in compile
    self.handle_exception(exc_info, source_hint=source_hint)
  File "/home/stefanos/COMP2011/flask/lib/python3.6/site-packages/jinja2/environment.py", line 780, in handle_exception
    reraise(exc_type, exc_value, tb)
  File "/home/stefanos/COMP2011/flask/lib/python3.6/site-packages/jinja2/_compat.py", line 37, in reraise
    raise value.with_traceback(tb)
  File "/home/stefanos/Downloads/comp2913-master (2)/merged/CW/app/templates/myApp.html", line 24, in template
    <li class="list-group-item">Grade: {{ current_user.enrolledCourse }}</li
  File "/home/stefanos/COMP2011/flask/lib/python3.6/site-packages/jinja2/environment.py", line 497, in _parse
    return Parser(self, source, name, encode_filename(filename)).parse()
  File "/home/stefanos/COMP2011/flask/lib/python3.6/site-packages/jinja2/parser.py", line 901, in parse
    result = nodes.Template(self.subparse(), lineno=1)
  File "/home/stefanos/COMP2011/flask/lib/python3.6/site-packages/jinja2/parser.py", line 883, in subparse
    rv = self.parse_statement()
  File "/home/stefanos/COMP2011/flask/lib/python3.6/site-packages/jinja2/parser.py", line 130, in parse_statement
    return getattr(self, 'parse_' + self.stream.current.value)()
  File "/home/stefanos/COMP2011/flask/lib/python3.6/site-packages/jinja2/parser.py", line 268, in parse_block
    node.body = self.parse_statements(('name:endblock',), drop_needle=True)
  File "/home/stefanos/COMP2011/flask/lib/python3.6/site-packages/jinja2/parser.py", line 170, in parse_statements
    self.fail_eof(end_tokens)
  File "/home/stefanos/COMP2011/flask/lib/python3.6/site-packages/jinja2/parser.py", line 104, in fail_eof
    return self._fail_ut_eof(None, stack, lineno)
  File "/home/stefanos/COMP2011/flask/lib/python3.6/site-packages/jinja2/parser.py", line 90, in _fail_ut_eof
    self.fail(' '.join(message), lineno)
  File "/home/stefanos/COMP2011/flask/lib/python3.6/site-packages/jinja2/parser.py", line 59, in fail
    raise exc(msg, lineno, self.name, self.filename)
jinja2.exceptions.TemplateSyntaxError: Unexpected end of template. Jinja was looking for the following tags: 'endblock'. The innermost block that needs to be closed is 'block'.
2021-02-08 04:11:28,040 INFO: University Service startup [in /home/stefanos/Downloads/comp2913-master (2)/merged/CW/app/__init__.py:218]
2021-02-08 04:13:47,616 INFO: University Service startup [in /home/stefanos/Downloads/comp2913-master (2)/merged/CW/app/__init__.py:218]
2021-02-08 04:14:07,539 INFO: University Service startup [in /home/stefanos/Downloads/comp2913-master (2)/merged/CW/app/__init__.py:218]
2021-02-08 04:14:24,628 INFO: University Service startup [in /home/stefanos/Downloads/comp2913-master (2)/merged/CW/app/__init__.py:218]
2021-02-08 04:15:48,447 INFO: University Service startup [in /home/stefanos/Downloads/comp2913-master (2)/merged/CW/app/__init__.py:218]
2021-02-08 04:18:23,193 INFO: University Service startup [in /home/stefanos/Downloads/comp2913-master (2)/merged/CW/app/__init__.py:218]
2021-02-08 04:18:24,340 ERROR: Exception on /apply [POST] [in /home/stefanos/COMP2011/flask/lib/python3.6/site-packages/flask/app.py:1891]
Traceback (most recent call last):
  File "/home/stefanos/COMP2011/flask/lib/python3.6/site-packages/flask/app.py", line 2446, in wsgi_app
    response = self.full_dispatch_request()
  File "/home/stefanos/COMP2011/flask/lib/python3.6/site-packages/flask/app.py", line 1951, in full_dispatch_request
    rv = self.handle_user_exception(e)
  File "/home/stefanos/COMP2011/flask/lib/python3.6/site-packages/flask/app.py", line 1820, in handle_user_exception
    reraise(exc_type, exc_value, tb)
  File "/home/stefanos/COMP2011/flask/lib/python3.6/site-packages/flask/_compat.py", line 39, in reraise
    raise value
  File "/home/stefanos/COMP2011/flask/lib/python3.6/site-packages/flask/app.py", line 1949, in full_dispatch_request
    rv = self.dispatch_request()
  File "/home/stefanos/COMP2011/flask/lib/python3.6/site-packages/flask/app.py", line 1935, in dispatch_request
    return self.view_functions[rule.endpoint](**req.view_args)
  File "/home/stefanos/Downloads/comp2913-master (2)/merged/CW/app/views.py", line 58, in apply
    if form.validate_on_submit():
  File "/home/stefanos/COMP2011/flask/lib/python3.6/site-packages/flask_wtf/form.py", line 101, in validate_on_submit
    return self.is_submitted() and self.validate()
  File "/home/stefanos/COMP2011/flask/lib/python3.6/site-packages/wtforms/form.py", line 310, in validate
    return super(Form, self).validate(extra)
  File "/home/stefanos/COMP2011/flask/lib/python3.6/site-packages/wtforms/form.py", line 152, in validate
    if not field.validate(self, extra):
  File "/home/stefanos/COMP2011/flask/lib/python3.6/site-packages/wtforms/fields/core.py", line 195, in validate
    self.pre_validate(form)
  File "/home/stefanos/COMP2011/flask/lib/python3.6/site-packages/wtforms/fields/core.py", line 471, in pre_validate
    for v, _ in self.choices:
TypeError: 'NoneType' object is not iterable
2021-02-08 04:19:52,544 INFO: University Service startup [in /home/stefanos/Downloads/comp2913-master (2)/merged/CW/app/__init__.py:218]
