2021-02-06 00:07:35,802 INFO: University Service startup [in /home/stefanos/Downloads/comp2913-master (2)/merged/CW/app/__init__.py:218]
2021-02-06 00:07:39,443 ERROR: Exception on /edit [GET] [in /home/stefanos/COMP2011/flask/lib/python3.6/site-packages/flask/app.py:1891]
Traceback (most recent call last):
  File "/home/stefanos/COMP2011/flask/lib/python3.6/site-packages/flask/app.py", line 2446, in wsgi_app
    response = self.full_dispatch_request()
  File "/home/stefanos/COMP2011/flask/lib/python3.6/site-packages/flask/app.py", line 1951, in full_dispatch_request
    rv = self.handle_user_exception(e)
  File "/home/stefanos/COMP2011/flask/lib/python3.6/site-packages/flask/app.py", line 1820, in handle_user_exception
    reraise(exc_type, exc_value, tb)
  File "/home/stefanos/COMP2011/flask/lib/python3.6/site-packages/flask/_compat.py", line 39, in reraise
    raise value
  File "/home/stefanos/COMP2011/flask/lib/python3.6/site-packages/flask/app.py", line 1949, in full_dispatch_request
    rv = self.dispatch_request()
  File "/home/stefanos/COMP2011/flask/lib/python3.6/site-packages/flask/app.py", line 1935, in dispatch_request
    return self.view_functions[rule.endpoint](**req.view_args)
  File "/home/stefanos/Downloads/comp2913-master (2)/merged/CW/app/views.py", line 76, in edit
    return render_template('editQualifications.html', title = 'Qualifications Edit')
  File "/home/stefanos/COMP2011/flask/lib/python3.6/site-packages/flask/templating.py", line 140, in render_template
    ctx.app,
  File "/home/stefanos/COMP2011/flask/lib/python3.6/site-packages/flask/templating.py", line 120, in _render
    rv = template.render(context)
  File "/home/stefanos/COMP2011/flask/lib/python3.6/site-packages/jinja2/asyncsupport.py", line 76, in render
    return original_render(self, *args, **kwargs)
  File "/home/stefanos/COMP2011/flask/lib/python3.6/site-packages/jinja2/environment.py", line 1008, in render
    return self.environment.handle_exception(exc_info, True)
  File "/home/stefanos/COMP2011/flask/lib/python3.6/site-packages/jinja2/environment.py", line 780, in handle_exception
    reraise(exc_type, exc_value, tb)
  File "/home/stefanos/COMP2011/flask/lib/python3.6/site-packages/jinja2/_compat.py", line 37, in reraise
    raise value.with_traceback(tb)
  File "/home/stefanos/Downloads/comp2913-master (2)/merged/CW/app/templates/editQualifications.html", line 1, in top-level template code
    {% extends "layout.html" %}
  File "/home/stefanos/Downloads/comp2913-master (2)/merged/CW/app/templates/layout.html", line 42, in top-level template code
    {% block content %}{% endblock %}
  File "/home/stefanos/Downloads/comp2913-master (2)/merged/CW/app/templates/editQualifications.html", line 16, in block "content"
    {{ form.hidden_tag() }}
  File "/home/stefanos/COMP2011/flask/lib/python3.6/site-packages/jinja2/environment.py", line 430, in getattr
    return getattr(obj, attribute)
jinja2.exceptions.UndefinedError: 'form' is undefined
2021-02-06 00:08:37,154 INFO: University Service startup [in /home/stefanos/Downloads/comp2913-master (2)/merged/CW/app/__init__.py:218]
2021-02-06 00:11:27,138 INFO: University Service startup [in /home/stefanos/Downloads/comp2913-master (2)/merged/CW/app/__init__.py:218]
2021-02-06 00:13:50,052 INFO: University Service startup [in /home/stefanos/Downloads/comp2913-master (2)/merged/CW/app/__init__.py:218]
2021-02-06 00:14:29,414 INFO: University Service startup [in /home/stefanos/Downloads/comp2913-master (2)/merged/CW/app/__init__.py:218]
2021-02-06 00:17:32,766 INFO: University Service startup [in /home/stefanos/Downloads/comp2913-master (2)/merged/CW/app/__init__.py:218]
2021-02-06 00:17:35,356 ERROR: Exception on /edit [POST] [in /home/stefanos/COMP2011/flask/lib/python3.6/site-packages/flask/app.py:1891]
Traceback (most recent call last):
  File "/home/stefanos/COMP2011/flask/lib/python3.6/site-packages/flask/app.py", line 2446, in wsgi_app
    response = self.full_dispatch_request()
  File "/home/stefanos/COMP2011/flask/lib/python3.6/site-packages/flask/app.py", line 1951, in full_dispatch_request
    rv = self.handle_user_exception(e)
  File "/home/stefanos/COMP2011/flask/lib/python3.6/site-packages/flask/app.py", line 1820, in handle_user_exception
    reraise(exc_type, exc_value, tb)
  File "/home/stefanos/COMP2011/flask/lib/python3.6/site-packages/flask/_compat.py", line 39, in reraise
    raise value
  File "/home/stefanos/COMP2011/flask/lib/python3.6/site-packages/flask/app.py", line 1949, in full_dispatch_request
    rv = self.dispatch_request()
  File "/home/stefanos/COMP2011/flask/lib/python3.6/site-packages/flask/app.py", line 1935, in dispatch_request
    return self.view_functions[rule.endpoint](**req.view_args)
  File "/home/stefanos/Downloads/comp2913-master (2)/merged/CW/app/views.py", line 73, in edit
    return redirect(url_for("/Qlf"))
  File "/home/stefanos/COMP2011/flask/lib/python3.6/site-packages/flask/helpers.py", line 370, in url_for
    return appctx.app.handle_url_build_error(error, endpoint, values)
  File "/home/stefanos/COMP2011/flask/lib/python3.6/site-packages/flask/app.py", line 2215, in handle_url_build_error
    reraise(exc_type, exc_value, tb)
  File "/home/stefanos/COMP2011/flask/lib/python3.6/site-packages/flask/_compat.py", line 39, in reraise
    raise value
  File "/home/stefanos/COMP2011/flask/lib/python3.6/site-packages/flask/helpers.py", line 358, in url_for
    endpoint, values, method=method, force_external=external
  File "/home/stefanos/COMP2011/flask/lib/python3.6/site-packages/werkzeug/routing.py", line 2020, in build
    raise BuildError(endpoint, values, method, self)
werkzeug.routing.BuildError: Could not build url for endpoint '/Qlf'. Did you mean 'Qlf' instead?
2021-02-06 00:17:44,309 INFO: University Service startup [in /home/stefanos/Downloads/comp2913-master (2)/merged/CW/app/__init__.py:218]
2021-02-06 00:18:32,810 INFO: University Service startup [in /home/stefanos/Downloads/comp2913-master (2)/merged/CW/app/__init__.py:218]
2021-02-06 00:19:59,388 INFO: University Service startup [in /home/stefanos/Downloads/comp2913-master (2)/merged/CW/app/__init__.py:218]
2021-02-06 00:22:16,317 INFO: University Service startup [in /home/stefanos/Downloads/comp2913-master (2)/merged/CW/app/__init__.py:218]
2021-02-06 00:22:17,034 ERROR: Exception on /Qlf [GET] [in /home/stefanos/COMP2011/flask/lib/python3.6/site-packages/flask/app.py:1891]
Traceback (most recent call last):
  File "/home/stefanos/COMP2011/flask/lib/python3.6/site-packages/flask/app.py", line 2446, in wsgi_app
    response = self.full_dispatch_request()
  File "/home/stefanos/COMP2011/flask/lib/python3.6/site-packages/flask/app.py", line 1951, in full_dispatch_request
    rv = self.handle_user_exception(e)
  File "/home/stefanos/COMP2011/flask/lib/python3.6/site-packages/flask/app.py", line 1820, in handle_user_exception
    reraise(exc_type, exc_value, tb)
  File "/home/stefanos/COMP2011/flask/lib/python3.6/site-packages/flask/_compat.py", line 39, in reraise
    raise value
  File "/home/stefanos/COMP2011/flask/lib/python3.6/site-packages/flask/app.py", line 1949, in full_dispatch_request
    rv = self.dispatch_request()
  File "/home/stefanos/COMP2011/flask/lib/python3.6/site-packages/flask/app.py", line 1935, in dispatch_request
    return self.view_functions[rule.endpoint](**req.view_args)
  File "/home/stefanos/COMP2011/flask/lib/python3.6/site-packages/flask_login/utils.py", line 261, in decorated_view
    return func(*args, **kwargs)
  File "/home/stefanos/Downloads/comp2913-master (2)/merged/CW/app/views.py", line 86, in Qlf
    print(std.subject1)
AttributeError: 'BaseQuery' object has no attribute 'subject1'
2021-02-06 00:22:41,401 ERROR: Exception on /Qlf [GET] [in /home/stefanos/COMP2011/flask/lib/python3.6/site-packages/flask/app.py:1891]
Traceback (most recent call last):
  File "/home/stefanos/COMP2011/flask/lib/python3.6/site-packages/flask/app.py", line 2446, in wsgi_app
    response = self.full_dispatch_request()
  File "/home/stefanos/COMP2011/flask/lib/python3.6/site-packages/flask/app.py", line 1951, in full_dispatch_request
    rv = self.handle_user_exception(e)
  File "/home/stefanos/COMP2011/flask/lib/python3.6/site-packages/flask/app.py", line 1820, in handle_user_exception
    reraise(exc_type, exc_value, tb)
  File "/home/stefanos/COMP2011/flask/lib/python3.6/site-packages/flask/_compat.py", line 39, in reraise
    raise value
  File "/home/stefanos/COMP2011/flask/lib/python3.6/site-packages/flask/app.py", line 1949, in full_dispatch_request
    rv = self.dispatch_request()
  File "/home/stefanos/COMP2011/flask/lib/python3.6/site-packages/flask/app.py", line 1935, in dispatch_request
    return self.view_functions[rule.endpoint](**req.view_args)
  File "/home/stefanos/COMP2011/flask/lib/python3.6/site-packages/flask_login/utils.py", line 261, in decorated_view
    return func(*args, **kwargs)
  File "/home/stefanos/Downloads/comp2913-master (2)/merged/CW/app/views.py", line 86, in Qlf
    print(std.subject1)
AttributeError: 'BaseQuery' object has no attribute 'subject1'
2021-02-06 00:22:56,505 INFO: University Service startup [in /home/stefanos/Downloads/comp2913-master (2)/merged/CW/app/__init__.py:218]
