2021-02-06 00:22:58,685 ERROR: Exception on /Qlf [GET] [in /home/stefanos/COMP2011/flask/lib/python3.6/site-packages/flask/app.py:1891]
Traceback (most recent call last):
  File "/home/stefanos/COMP2011/flask/lib/python3.6/site-packages/flask/app.py", line 2446, in wsgi_app
    response = self.full_dispatch_request()
  File "/home/stefanos/COMP2011/flask/lib/python3.6/site-packages/flask/app.py", line 1951, in full_dispatch_request
    rv = self.handle_user_exception(e)
  File "/home/stefanos/COMP2011/flask/lib/python3.6/site-packages/flask/app.py", line 1820, in handle_user_exception
    reraise(exc_type, exc_value, tb)
  File "/home/stefanos/COMP2011/flask/lib/python3.6/site-packages/flask/_compat.py", line 39, in reraise
    raise value
  File "/home/stefanos/COMP2011/flask/lib/python3.6/site-packages/flask/app.py", line 1949, in full_dispatch_request
    rv = self.dispatch_request()
  File "/home/stefanos/COMP2011/flask/lib/python3.6/site-packages/flask/app.py", line 1935, in dispatch_request
    return self.view_functions[rule.endpoint](**req.view_args)
  File "/home/stefanos/COMP2011/flask/lib/python3.6/site-packages/flask_login/utils.py", line 261, in decorated_view
    return func(*args, **kwargs)
  File "/home/stefanos/Downloads/comp2913-master (2)/merged/CW/app/views.py", line 85, in Qlf
    std = models.Student.query.filter_by(id = current_user)
  File "/home/stefanos/COMP2011/flask/lib/python3.6/site-packages/sqlalchemy/orm/query.py", line 1800, in filter_by
    for key, value in kwargs.items()
  File "/home/stefanos/COMP2011/flask/lib/python3.6/site-packages/sqlalchemy/orm/query.py", line 1800, in <listcomp>
    for key, value in kwargs.items()
  File "/home/stefanos/COMP2011/flask/lib/python3.6/site-packages/sqlalchemy/sql/operators.py", line 365, in __eq__
    return self.operate(eq, other)
  File "/home/stefanos/COMP2011/flask/lib/python3.6/site-packages/sqlalchemy/orm/attributes.py", line 217, in operate
    return op(self.comparator, *other, **kwargs)
  File "/home/stefanos/COMP2011/flask/lib/python3.6/site-packages/sqlalchemy/sql/operators.py", line 365, in __eq__
    return self.operate(eq, other)
  File "/home/stefanos/COMP2011/flask/lib/python3.6/site-packages/sqlalchemy/orm/properties.py", line 315, in operate
    return op(self.__clause_element__(), *other, **kwargs)
  File "/home/stefanos/COMP2011/flask/lib/python3.6/site-packages/sqlalchemy/sql/annotation.py", line 104, in __eq__
    return self.__element.__class__.__eq__(self, other)
  File "/home/stefanos/COMP2011/flask/lib/python3.6/site-packages/sqlalchemy/sql/operators.py", line 365, in __eq__
    return self.operate(eq, other)
  File "/home/stefanos/COMP2011/flask/lib/python3.6/site-packages/sqlalchemy/sql/elements.py", line 725, in operate
    return op(self.comparator, *other, **kwargs)
  File "/home/stefanos/COMP2011/flask/lib/python3.6/site-packages/sqlalchemy/sql/operators.py", line 365, in __eq__
    return self.operate(eq, other)
  File "<string>", line 1, in <lambda>
  File "/home/stefanos/COMP2011/flask/lib/python3.6/site-packages/sqlalchemy/sql/type_api.py", line 67, in operate
    return o[0](self.expr, op, *(other + o[1:]), **kwargs)
  File "/home/stefanos/COMP2011/flask/lib/python3.6/site-packages/sqlalchemy/sql/default_comparator.py", line 105, in _boolean_compare
    obj = _check_literal(expr, op, obj)
  File "/home/stefanos/COMP2011/flask/lib/python3.6/site-packages/sqlalchemy/sql/default_comparator.py", line 373, in _check_literal
    return expr._bind_param(operator, other, type_=bindparam_type)
  File "/home/stefanos/COMP2011/flask/lib/python3.6/site-packages/sqlalchemy/sql/elements.py", line 4067, in _bind_param
    unique=True,
  File "/home/stefanos/COMP2011/flask/lib/python3.6/site-packages/sqlalchemy/sql/elements.py", line 1187, in __init__
    _compared_to_operator, value
  File "/home/stefanos/COMP2011/flask/lib/python3.6/site-packages/sqlalchemy/sql/type_api.py", line 563, in coerce_compared_value
    _coerced_type = _resolve_value_to_type(value)
  File "/home/stefanos/COMP2011/flask/lib/python3.6/site-packages/sqlalchemy/sql/sqltypes.py", line 2877, in _resolve_value_to_type
    "Object %r is not legal as a SQL literal value" % value
sqlalchemy.exc.ArgumentError: Object steven cost 1 is not legal as a SQL literal value
2021-02-06 00:23:50,501 INFO: University Service startup [in /home/stefanos/Downloads/comp2913-master (2)/merged/CW/app/__init__.py:218]
2021-02-06 00:23:51,379 ERROR: Exception on /Qlf [GET] [in /home/stefanos/COMP2011/flask/lib/python3.6/site-packages/flask/app.py:1891]
Traceback (most recent call last):
  File "/home/stefanos/COMP2011/flask/lib/python3.6/site-packages/flask/app.py", line 2446, in wsgi_app
    response = self.full_dispatch_request()
  File "/home/stefanos/COMP2011/flask/lib/python3.6/site-packages/flask/app.py", line 1951, in full_dispatch_request
    rv = self.handle_user_exception(e)
  File "/home/stefanos/COMP2011/flask/lib/python3.6/site-packages/flask/app.py", line 1820, in handle_user_exception
    reraise(exc_type, exc_value, tb)
  File "/home/stefanos/COMP2011/flask/lib/python3.6/site-packages/flask/_compat.py", line 39, in reraise
    raise value
  File "/home/stefanos/COMP2011/flask/lib/python3.6/site-packages/flask/app.py", line 1949, in full_dispatch_request
    rv = self.dispatch_request()
  File "/home/stefanos/COMP2011/flask/lib/python3.6/site-packages/flask/app.py", line 1935, in dispatch_request
    return self.view_functions[rule.endpoint](**req.view_args)
  File "/home/stefanos/COMP2011/flask/lib/python3.6/site-packages/flask_login/utils.py", line 261, in decorated_view
    return func(*args, **kwargs)
  File "/home/stefanos/Downloads/comp2913-master (2)/merged/CW/app/views.py", line 85, in Qlf
    std = models.Student.query.filter_by(id = current_user)
  File "/home/stefanos/COMP2011/flask/lib/python3.6/site-packages/sqlalchemy/orm/query.py", line 1800, in filter_by
    for key, value in kwargs.items()
  File "/home/stefanos/COMP2011/flask/lib/python3.6/site-packages/sqlalchemy/orm/query.py", line 1800, in <listcomp>
    for key, value in kwargs.items()
  File "/home/stefanos/COMP2011/flask/lib/python3.6/site-packages/sqlalchemy/sql/operators.py", line 365, in __eq__
    return self.operate(eq, other)
  File "/home/stefanos/COMP2011/flask/lib/python3.6/site-packages/sqlalchemy/orm/attributes.py", line 217, in operate
    return op(self.comparator, *other, **kwargs)
  File "/home/stefanos/COMP2011/flask/lib/python3.6/site-packages/sqlalchemy/sql/operators.py", line 365, in __eq__
    return self.operate(eq, other)
  File "/home/stefanos/COMP2011/flask/lib/python3.6/site-packages/sqlalchemy/orm/properties.py", line 315, in operate
    return op(self.__clause_element__(), *other, **kwargs)
  File "/home/stefanos/COMP2011/flask/lib/python3.6/site-packages/sqlalchemy/sql/annotation.py", line 104, in __eq__
    return self.__element.__class__.__eq__(self, other)
  File "/home/stefanos/COMP2011/flask/lib/python3.6/site-packages/sqlalchemy/sql/operators.py", line 365, in __eq__
    return self.operate(eq, other)
  File "/home/stefanos/COMP2011/flask/lib/python3.6/site-packages/sqlalchemy/sql/elements.py", line 725, in operate
    return op(self.comparator, *other, **kwargs)
  File "/home/stefanos/COMP2011/flask/lib/python3.6/site-packages/sqlalchemy/sql/operators.py", line 365, in __eq__
    return self.operate(eq, other)
  File "<string>", line 1, in <lambda>
  File "/home/stefanos/COMP2011/flask/lib/python3.6/site-packages/sqlalchemy/sql/type_api.py", line 67, in operate
    return o[0](self.expr, op, *(other + o[1:]), **kwargs)
  File "/home/stefanos/COMP2011/flask/lib/python3.6/site-packages/sqlalchemy/sql/default_comparator.py", line 105, in _boolean_compare
    obj = _check_literal(expr, op, obj)
  File "/home/stefanos/COMP2011/flask/lib/python3.6/site-packages/sqlalchemy/sql/default_comparator.py", line 373, in _check_literal
    return expr._bind_param(operator, other, type_=bindparam_type)
  File "/home/stefanos/COMP2011/flask/lib/python3.6/site-packages/sqlalchemy/sql/elements.py", line 4067, in _bind_param
    unique=True,
  File "/home/stefanos/COMP2011/flask/lib/python3.6/site-packages/sqlalchemy/sql/elements.py", line 1187, in __init__
    _compared_to_operator, value
  File "/home/stefanos/COMP2011/flask/lib/python3.6/site-packages/sqlalchemy/sql/type_api.py", line 563, in coerce_compared_value
    _coerced_type = _resolve_value_to_type(value)
  File "/home/stefanos/COMP2011/flask/lib/python3.6/site-packages/sqlalchemy/sql/sqltypes.py", line 2877, in _resolve_value_to_type
    "Object %r is not legal as a SQL literal value" % value
sqlalchemy.exc.ArgumentError: Object steven cost 1 is not legal as a SQL literal value
2021-02-06 00:24:12,061 INFO: University Service startup [in /home/stefanos/Downloads/comp2913-master (2)/merged/CW/app/__init__.py:218]
2021-02-06 00:26:45,071 INFO: University Service startup [in /home/stefanos/Downloads/comp2913-master (2)/merged/CW/app/__init__.py:218]
2021-02-06 00:27:26,876 INFO: University Service startup [in /home/stefanos/Downloads/comp2913-master (2)/merged/CW/app/__init__.py:218]
2021-02-06 00:28:07,433 INFO: University Service startup [in /home/stefanos/Downloads/comp2913-master (2)/merged/CW/app/__init__.py:218]
2021-02-06 00:29:15,882 INFO: University Service startup [in /home/stefanos/Downloads/comp2913-master (2)/merged/CW/app/__init__.py:218]
