2021-02-08 03:30:19,515 ERROR: Exception on /apply [GET] [in /home/stefanos/COMP2011/flask/lib/python3.6/site-packages/flask/app.py:1891]
Traceback (most recent call last):
  File "/home/stefanos/COMP2011/flask/lib/python3.6/site-packages/flask/app.py", line 2446, in wsgi_app
    response = self.full_dispatch_request()
  File "/home/stefanos/COMP2011/flask/lib/python3.6/site-packages/flask/app.py", line 1951, in full_dispatch_request
    rv = self.handle_user_exception(e)
  File "/home/stefanos/COMP2011/flask/lib/python3.6/site-packages/flask/app.py", line 1820, in handle_user_exception
    reraise(exc_type, exc_value, tb)
  File "/home/stefanos/COMP2011/flask/lib/python3.6/site-packages/flask/_compat.py", line 39, in reraise
    raise value
  File "/home/stefanos/COMP2011/flask/lib/python3.6/site-packages/flask/app.py", line 1949, in full_dispatch_request
    rv = self.dispatch_request()
  File "/home/stefanos/COMP2011/flask/lib/python3.6/site-packages/flask/app.py", line 1935, in dispatch_request
    return self.view_functions[rule.endpoint](**req.view_args)
  File "/home/stefanos/Downloads/comp2913-master (2)/merged/CW/app/views.py", line 58, in apply
    return render_template('application.html', title = 'Choose a Course',form = form)
  File "/home/stefanos/COMP2011/flask/lib/python3.6/site-packages/flask/templating.py", line 140, in render_template
    ctx.app,
  File "/home/stefanos/COMP2011/flask/lib/python3.6/site-packages/flask/templating.py", line 120, in _render
    rv = template.render(context)
  File "/home/stefanos/COMP2011/flask/lib/python3.6/site-packages/jinja2/asyncsupport.py", line 76, in render
    return original_render(self, *args, **kwargs)
  File "/home/stefanos/COMP2011/flask/lib/python3.6/site-packages/jinja2/environment.py", line 1008, in render
    return self.environment.handle_exception(exc_info, True)
  File "/home/stefanos/COMP2011/flask/lib/python3.6/site-packages/jinja2/environment.py", line 780, in handle_exception
    reraise(exc_type, exc_value, tb)
  File "/home/stefanos/COMP2011/flask/lib/python3.6/site-packages/jinja2/_compat.py", line 37, in reraise
    raise value.with_traceback(tb)
  File "/home/stefanos/Downloads/comp2913-master (2)/merged/CW/app/templates/application.html", line 1, in top-level template code
    {% extends "layout.html" %}
  File "/home/stefanos/Downloads/comp2913-master (2)/merged/CW/app/templates/layout.html", line 41, in top-level template code
    {% block content %}{% endblock %}
  File "/home/stefanos/Downloads/comp2913-master (2)/merged/CW/app/templates/application.html", line 30, in block "content"
    {{ form.courseField(class="form-control form-control-lg") }}
  File "/home/stefanos/COMP2011/flask/lib/python3.6/site-packages/wtforms/fields/core.py", line 155, in __call__
    return self.meta.render_field(self, kwargs)
  File "/home/stefanos/COMP2011/flask/lib/python3.6/site-packages/wtforms/meta.py", line 56, in render_field
    return field.widget(field, **render_kw)
  File "/home/stefanos/COMP2011/flask/lib/python3.6/site-packages/wtforms/widgets/core.py", line 323, in __call__
    for val, label, selected in field.iter_choices():
  File "/home/stefanos/COMP2011/flask/lib/python3.6/site-packages/wtforms/fields/core.py", line 454, in iter_choices
    for value, label in self.choices:
ValueError: too many values to unpack (expected 2)
2021-02-08 03:30:43,535 INFO: University Service startup [in /home/stefanos/Downloads/comp2913-master (2)/merged/CW/app/__init__.py:218]
2021-02-08 03:55:49,091 INFO: University Service startup [in /home/stefanos/Downloads/comp2913-master (2)/merged/CW/app/__init__.py:218]
2021-02-08 03:55:51,086 ERROR: Exception on /apply [POST] [in /home/stefanos/COMP2011/flask/lib/python3.6/site-packages/flask/app.py:1891]
Traceback (most recent call last):
  File "/home/stefanos/COMP2011/flask/lib/python3.6/site-packages/flask/app.py", line 2446, in wsgi_app
    response = self.full_dispatch_request()
  File "/home/stefanos/COMP2011/flask/lib/python3.6/site-packages/flask/app.py", line 1951, in full_dispatch_request
    rv = self.handle_user_exception(e)
  File "/home/stefanos/COMP2011/flask/lib/python3.6/site-packages/flask/app.py", line 1820, in handle_user_exception
    reraise(exc_type, exc_value, tb)
  File "/home/stefanos/COMP2011/flask/lib/python3.6/site-packages/flask/_compat.py", line 39, in reraise
    raise value
  File "/home/stefanos/COMP2011/flask/lib/python3.6/site-packages/flask/app.py", line 1949, in full_dispatch_request
    rv = self.dispatch_request()
  File "/home/stefanos/COMP2011/flask/lib/python3.6/site-packages/flask/app.py", line 1935, in dispatch_request
    return self.view_functions[rule.endpoint](**req.view_args)
  File "/home/stefanos/Downloads/comp2913-master (2)/merged/CW/app/views.py", line 59, in apply
    if form.validate_on_submit():
  File "/home/stefanos/COMP2011/flask/lib/python3.6/site-packages/flask_wtf/form.py", line 101, in validate_on_submit
    return self.is_submitted() and self.validate()
  File "/home/stefanos/COMP2011/flask/lib/python3.6/site-packages/wtforms/form.py", line 310, in validate
    return super(Form, self).validate(extra)
  File "/home/stefanos/COMP2011/flask/lib/python3.6/site-packages/wtforms/form.py", line 152, in validate
    if not field.validate(self, extra):
  File "/home/stefanos/COMP2011/flask/lib/python3.6/site-packages/wtforms/fields/core.py", line 195, in validate
    self.pre_validate(form)
  File "/home/stefanos/COMP2011/flask/lib/python3.6/site-packages/wtforms/fields/core.py", line 471, in pre_validate
    for v, _ in self.choices:
TypeError: 'NoneType' object is not iterable
2021-02-08 03:56:49,570 INFO: University Service startup [in /home/stefanos/Downloads/comp2913-master (2)/merged/CW/app/__init__.py:218]
2021-02-08 03:56:55,462 ERROR: Exception on /apply [POST] [in /home/stefanos/COMP2011/flask/lib/python3.6/site-packages/flask/app.py:1891]
Traceback (most recent call last):
  File "/home/stefanos/COMP2011/flask/lib/python3.6/site-packages/flask/app.py", line 2446, in wsgi_app
    response = self.full_dispatch_request()
  File "/home/stefanos/COMP2011/flask/lib/python3.6/site-packages/flask/app.py", line 1951, in full_dispatch_request
    rv = self.handle_user_exception(e)
  File "/home/stefanos/COMP2011/flask/lib/python3.6/site-packages/flask/app.py", line 1820, in handle_user_exception
    reraise(exc_type, exc_value, tb)
  File "/home/stefanos/COMP2011/flask/lib/python3.6/site-packages/flask/_compat.py", line 39, in reraise
    raise value
  File "/home/stefanos/COMP2011/flask/lib/python3.6/site-packages/flask/app.py", line 1949, in full_dispatch_request
    rv = self.dispatch_request()
  File "/home/stefanos/COMP2011/flask/lib/python3.6/site-packages/flask/app.py", line 1935, in dispatch_request
    return self.view_functions[rule.endpoint](**req.view_args)
  File "/home/stefanos/Downloads/comp2913-master (2)/merged/CW/app/views.py", line 58, in apply
    if form.validate_on_submit():
  File "/home/stefanos/COMP2011/flask/lib/python3.6/site-packages/flask_wtf/form.py", line 101, in validate_on_submit
    return self.is_submitted() and self.validate()
  File "/home/stefanos/COMP2011/flask/lib/python3.6/site-packages/wtforms/form.py", line 310, in validate
    return super(Form, self).validate(extra)
  File "/home/stefanos/COMP2011/flask/lib/python3.6/site-packages/wtforms/form.py", line 152, in validate
    if not field.validate(self, extra):
  File "/home/stefanos/COMP2011/flask/lib/python3.6/site-packages/wtforms/fields/core.py", line 195, in validate
    self.pre_validate(form)
  File "/home/stefanos/COMP2011/flask/lib/python3.6/site-packages/wtforms/fields/core.py", line 471, in pre_validate
    for v, _ in self.choices:
TypeError: 'NoneType' object is not iterable
2021-02-08 03:59:04,627 INFO: University Service startup [in /home/stefanos/Downloads/comp2913-master (2)/merged/CW/app/__init__.py:218]
2021-02-08 03:59:07,877 ERROR: Exception on /apply [GET] [in /home/stefanos/COMP2011/flask/lib/python3.6/site-packages/flask/app.py:1891]
Traceback (most recent call last):
  File "/home/stefanos/COMP2011/flask/lib/python3.6/site-packages/flask/app.py", line 2446, in wsgi_app
    response = self.full_dispatch_request()
  File "/home/stefanos/COMP2011/flask/lib/python3.6/site-packages/flask/app.py", line 1951, in full_dispatch_request
    rv = self.handle_user_exception(e)
  File "/home/stefanos/COMP2011/flask/lib/python3.6/site-packages/flask/app.py", line 1820, in handle_user_exception
    reraise(exc_type, exc_value, tb)
  File "/home/stefanos/COMP2011/flask/lib/python3.6/site-packages/flask/_compat.py", line 39, in reraise
    raise value
  File "/home/stefanos/COMP2011/flask/lib/python3.6/site-packages/flask/app.py", line 1949, in full_dispatch_request
    rv = self.dispatch_request()
  File "/home/stefanos/COMP2011/flask/lib/python3.6/site-packages/flask/app.py", line 1935, in dispatch_request
    return self.view_functions[rule.endpoint](**req.view_args)
  File "/home/stefanos/Downloads/comp2913-master (2)/merged/CW/app/views.py", line 61, in apply
    print(courses)
UnboundLocalError: local variable 'courses' referenced before assignment
2021-02-08 03:59:24,210 INFO: University Service startup [in /home/stefanos/Downloads/comp2913-master (2)/merged/CW/app/__init__.py:218]
